<svg width="24" height="24" viewBox="0 0 24 24" fill="none" xmlns="http://www.w3.org/2000/svg">
<path d="M18.2238 2H5.77622C3.69067 2 2 3.69067 2 5.77622V18.2238C2 20.3093 3.69067 22 5.77622 22H18.2238C20.3093 22 22 20.3093 22 18.2238V5.77622C22 3.69067 20.3093 2 18.2238 2Z" stroke="#26CFC7" stroke-width="1.5" stroke-linecap="round" stroke-linejoin="round"/>
<path d="M12.0699 15.9169C14.1941 15.9169 15.9161 14.1949 15.9161 12.0708C15.9161 9.94659 14.1941 8.22461 12.0699 8.22461C9.94574 8.22461 8.22375 9.94659 8.22375 12.0708C8.22375 14.1949 9.94574 15.9169 12.0699 15.9169Z" stroke="#26CFC7" stroke-width="1.5" stroke-linecap="round" stroke-linejoin="round"/>
<path d="M19.7622 8.22461H22.0699" stroke="#26CFC7" stroke-width="1.5" stroke-linecap="round" stroke-linejoin="round"/>
<path d="M19.7622 15.915H22.0699" stroke="#26CFC7" stroke-width="1.5" stroke-linecap="round" stroke-linejoin="round"/>
</svg>
