<svg width="25" height="10" viewBox="0 0 25 10" fill="none" xmlns="http://www.w3.org/2000/svg">
<path d="M20.4656 2.75606L21.8397 6.06897H21.8585L23.195 2.75606H24.1377L21.2465 9.40069H20.3526L21.4256 7.07574L19.5244 2.75606H20.4656ZM4.5615 0.0896095C5.44278 0.0793163 6.29635 0.382121 6.97229 0.93967L7.15212 1.098L6.04693 2.2032L5.89101 2.06842C5.51361 1.77323 5.04469 1.61447 4.5615 1.62236C3.55149 1.62236 2.69423 2.30323 2.38768 3.22073C2.22561 3.70151 2.22561 4.22216 2.38768 4.70293C2.69423 5.62043 3.55149 6.3013 4.5615 6.3013C5.01003 6.3013 5.40285 6.20252 5.72472 6.02595L5.87967 5.93129L6.02635 5.82231C6.3072 5.59171 6.51142 5.28098 6.61169 4.93169L6.65304 4.75402H4.5615V3.26268H8.21322C8.25792 3.52274 8.28023 3.78616 8.27991 4.05003C8.27991 5.22837 7.8588 6.22493 7.12792 6.8988C6.48632 7.49093 5.60646 7.83405 4.5615 7.83405C3.17902 7.83399 1.90818 7.09767 1.21754 5.91403L1.10178 5.70057L0.992384 5.46329C0.588476 4.50337 0.588476 3.42029 0.992384 2.46037L1.10178 2.2231L1.21754 2.00963C1.90818 0.825996 3.17902 0.0896725 4.5615 0.0896095ZM17.3129 2.60548C17.9529 2.60548 18.4581 2.7765 18.8285 3.11855C19.1989 3.46059 19.3839 3.92956 19.3835 4.52545V7.36777H18.5553V6.72778H18.5176C18.1591 7.25483 17.6822 7.51836 17.0871 7.51836C16.579 7.51836 16.154 7.36777 15.8119 7.0666C15.4795 6.78665 15.291 6.37174 15.2988 5.9372C15.2988 5.45999 15.4792 5.08047 15.8399 4.79866C16.2006 4.51685 16.6821 4.37559 17.2844 4.37487C17.7986 4.37487 18.222 4.46898 18.5547 4.65722V4.45931C18.5567 4.16309 18.4254 3.88168 18.1971 3.69293C17.9681 3.48634 17.6697 3.37362 17.3613 3.37723C16.8777 3.37723 16.4949 3.58124 16.2131 3.98926L15.4505 3.509C15.87 2.90665 16.4908 2.60548 17.3129 2.60548ZM13.2095 0.627418C13.7631 0.615853 14.2985 0.825924 14.6965 1.21094C15.0992 1.57319 15.3257 2.09183 15.3177 2.63344C15.3292 3.17808 15.1023 3.7006 14.6965 4.06401C14.2949 4.44693 13.7993 4.63822 13.2095 4.63786H11.7789V7.36777H10.913V0.627418H13.2095ZM17.4275 5.06918C17.0758 5.06918 16.7825 5.15397 16.5476 5.32356C16.3105 5.49566 16.1927 5.70487 16.1927 5.95603C16.1915 6.17962 16.2985 6.38998 16.4799 6.52073C16.6714 6.67136 16.9091 6.75116 17.1527 6.7466C17.5181 6.74599 17.8683 6.60056 18.1266 6.34217C18.4135 6.07219 18.5569 5.75542 18.5569 5.39186C18.2869 5.17674 17.9104 5.06918 17.4275 5.06918ZM13.231 1.45672H11.7789V3.81017H13.231C13.5529 3.81971 13.8639 3.6932 14.0877 3.46167C14.3102 3.24538 14.4357 2.9483 14.4357 2.63802C14.4357 2.32774 14.3102 2.03065 14.0877 1.81436C13.8666 1.57786 13.5546 1.44762 13.231 1.45672Z" fill="#70787F"/>
</svg>
