<svg width="20" height="21" viewBox="0 0 20 21" fill="none" xmlns="http://www.w3.org/2000/svg">
<path d="M19.3992 2.17823C19.1583 1.94777 18.7558 1.93862 18.5082 2.16285L0.61124 18.4103C0.363713 18.6346 0.353878 19.0094 0.59472 19.2398C0.835563 19.4703 1.23813 19.4795 1.48565 19.2552L19.3827 3.00775C19.6302 2.78351 19.64 2.4087 19.3992 2.17823Z" fill="#70787F"/>
<path d="M4.33946 1.08203C2.50244 1.08203 0.999999 2.73363 0.999999 4.76728C0.999999 6.80092 2.50244 8.4584 4.33946 8.4584C6.17647 8.4584 7.67891 6.80092 7.67891 4.76728C7.67891 2.73363 6.17647 1.08203 4.33946 1.08203ZM4.33314 7.28288C3.19053 7.28288 2.25624 6.15439 2.25624 4.76728C2.25624 3.38017 3.19053 2.25755 4.33314 2.25755C5.47576 2.25755 6.41005 3.38604 6.41005 4.76728C6.41005 6.14851 5.47576 7.28288 4.33314 7.28288Z" fill="#70787F"/>
<path d="M15.6605 12.9599C13.8172 12.9599 12.3148 14.6115 12.3148 16.6451C12.3148 18.6787 13.8172 20.3303 15.6605 20.3303C17.5039 20.3303 19 18.6787 19 16.6451C19 14.6115 17.5039 12.9599 15.6605 12.9599ZM15.6605 19.1607C14.5116 19.1607 13.5773 18.0322 13.5773 16.651C13.5773 15.2698 14.5116 14.1413 15.6605 14.1413C16.8095 14.1413 17.7374 15.2698 17.7374 16.651C17.7374 18.0322 16.8032 19.1607 15.6605 19.1607Z" fill="#70787F"/>
<path d="M19.3992 2.17823C19.1583 1.94777 18.7558 1.93862 18.5082 2.16285L0.61124 18.4103C0.363713 18.6346 0.353878 19.0094 0.59472 19.2398C0.835563 19.4703 1.23813 19.4795 1.48565 19.2552L19.3827 3.00775C19.6302 2.78351 19.64 2.4087 19.3992 2.17823Z" stroke="#70787F" stroke-width="0.5"/>
<path d="M4.33946 1.08203C2.50244 1.08203 0.999999 2.73363 0.999999 4.76728C0.999999 6.80092 2.50244 8.4584 4.33946 8.4584C6.17647 8.4584 7.67891 6.80092 7.67891 4.76728C7.67891 2.73363 6.17647 1.08203 4.33946 1.08203ZM4.33314 7.28288C3.19053 7.28288 2.25624 6.15439 2.25624 4.76728C2.25624 3.38017 3.19053 2.25755 4.33314 2.25755C5.47576 2.25755 6.41005 3.38604 6.41005 4.76728C6.41005 6.14851 5.47576 7.28288 4.33314 7.28288Z" stroke="#70787F" stroke-width="0.5"/>
<path d="M15.6605 12.9599C13.8172 12.9599 12.3148 14.6115 12.3148 16.6451C12.3148 18.6787 13.8172 20.3303 15.6605 20.3303C17.5039 20.3303 19 18.6787 19 16.6451C19 14.6115 17.5039 12.9599 15.6605 12.9599ZM15.6605 19.1607C14.5116 19.1607 13.5773 18.0322 13.5773 16.651C13.5773 15.2698 14.5116 14.1413 15.6605 14.1413C16.8095 14.1413 17.7374 15.2698 17.7374 16.651C17.7374 18.0322 16.8032 19.1607 15.6605 19.1607Z" stroke="#70787F" stroke-width="0.5"/>
</svg>
