<svg width="32" height="28" viewBox="0 0 32 28" fill="none" xmlns="http://www.w3.org/2000/svg">
<path d="M11.1475 16.2349L13.512 8.17725H15.6218L13.257 16.2349H11.1475Z" fill="white"/>
<path d="M9.89814 8.1792L8.00024 11.5948C7.51709 12.4894 7.23458 12.9413 7.0987 13.5066H7.06995C7.10331 12.7898 7.00673 11.9101 6.99773 11.4126L6.78787 8.1792H3.23639L3.19995 8.39583C4.11224 8.39583 4.65334 8.86948 4.80239 9.83854L5.49451 16.2346H7.68041L12.1005 8.1792H9.89814Z" fill="white"/>
<path d="M26.6536 16.2346L26.5954 15.0362L23.9608 15.0339L23.4219 16.2346H21.1311L25.2847 8.19238H28.0967L28.8 16.2346H26.6536ZM26.4117 11.4816C26.388 10.8861 26.3684 10.0779 26.4077 9.58859H26.3766C26.2481 9.98874 25.6967 11.1899 25.454 11.7808L24.669 13.547H26.5188L26.4117 11.4816Z" fill="white"/>
<path d="M17.8537 16.4632C16.3639 16.4632 15.3754 15.9751 14.6697 15.5398L15.6748 13.9535C16.3083 14.3198 16.806 14.7424 17.9507 14.7424C18.3186 14.7424 18.6729 14.6435 18.8746 14.2833C19.1679 13.7588 18.807 13.4769 17.9828 12.9948L17.5758 12.7213C16.3538 11.8583 15.8254 11.039 16.4005 9.60876C16.7687 8.69368 17.7393 8 19.3407 8C20.445 8 21.4807 8.49361 22.0839 8.9761L20.9284 10.3764C20.3394 9.8846 19.8517 9.63553 19.2933 9.63553C18.8479 9.63553 18.5094 9.81292 18.3928 10.0522C18.1729 10.5023 18.4637 10.809 19.106 11.2209L19.59 11.539C21.0733 12.506 21.4269 13.5197 21.0551 14.4677C20.4154 16.0991 19.1635 16.4632 17.8537 16.4632Z" fill="white"/>
</svg>
