[ {
  "id" : "123",
  "currencies" : [ {
    "minAmount" : 100.00,
    "maxAmount" : 1000000.00,
    "code" : "UAH",
    "maxPeriod" : "P6M",
    "periods" : [ {
      "code" : "P3M",
      "interestRates" : [ {
        "minAmount" : 100,
        "value" : 8.0
      }, {
        "minAmount" : 10000,
        "value" : 11.0
      } ]
    }, {
      "code" : "P6M",
      "interestRates" : [ {
        "minAmount" : 100,
        "value" : 7.0
      }, {
        "minAmount" : 10000,
        "value" : 10.0
      } ]
    } ]
  }, {
    "minAmount" : 1.00,
    "maxAmount" : 10000.00,
    "code" : "USD",
    "maxPeriod" : "P1Y",
    "periods" : [ {
      "code" : "P6M",
      "interestRates" : [ {
        "minAmount" : 1,
        "value" : 7.0
      }, {
        "minAmount" : 100,
        "value" : 10.0
      } ]
    }, {
      "code" : "P1Y",
      "interestRates" : [ {
        "minAmount" : 1,
        "value" : 6.0
      }, {
        "minAmount" : 100,
        "value" : 9.0
      } ]
    } ]
  } ],
  "autoProlongationAllowed" : true,
  "reinvestInterest" : false,
  "name" : "Summer offer",
  "description" : "Exclusively for the visitors of the portal. To open a deposit, place an order at our site and get a promotional code. Customers who have opened this contribution, participate in the drawing of Apple iPhone SE 64GB.",
  "topupAmount" : {
    "currencies" : [ {
      "minAmount" : 100.00,
      "maxAmount" : 10000.00,
      "code" : "UAH"
    }, {
      "minAmount" : 1.00,
      "maxAmount" : 100.00,
      "code" : "USD"
    } ],
    "description" : "Not less than 100/1 and not more than 10,000/100 UAH/USD, not later than 30 days before the end of the deposit"
  },
  "interestPayment" : [ "at_maturity", "monthly", "quarterly" ]
}, {
  "id" : "47",
  "currencies" : [ {
    "minAmount" : 200,
    "maxAmount" : 999999999,
    "code" : "UAH",
    "maxPeriod" : "P2Y",
    "periods" : [ {
      "code" : "P3M",
      "interestRates" : [ {
        "minAmount" : 6.5,
        "value" : 0
      } ]
    }, {
      "code" : "P6M",
      "interestRates" : [ {
        "minAmount" : 0,
        "value" : 7.3
      } ]
    }, {
      "code" : "P9M",
      "interestRates" : [ {
        "minAmount" : 0,
        "value" : 7.6
      } ]
    }, {
      "code" : "P1Y",
      "interestRates" : [ {
        "minAmount" : 0,
        "value" : 7.9
      } ]
    }, {
      "code" : "P2Y",
      "interestRates" : [ {
        "minAmount" : 0,
        "value" : 8.1
      } ]
    } ]
  }, {
    "minAmount" : 10,
    "maxAmount" : 999999999,
    "code" : "USD",
    "maxPeriod" : "P2Y",
    "periods" : [ {
      "code" : "P3M",
      "interestRates" : [ {
        "minAmount" : 0,
        "value" : 4.6
      } ]
    }, {
      "code" : "P6M",
      "interestRates" : [ {
        "minAmount" : 0,
        "value" : 4.7
      } ]
    }, {
      "code" : "P9M",
      "interestRates" : [ {
        "minAmount" : 0,
        "value" : 4.8
      } ]
    }, {
      "code" : "P1Y",
      "interestRates" : [ {
        "minAmount" : 0,
        "value" : 4.9
      } ]
    }, {
      "code" : "P2Y",
      "interestRates" : [ {
        "minAmount" : 0,
        "value" : 5.1
      } ]
    } ]
  }, {
    "minAmount" : 10,
    "maxAmount" : 999999999,
    "code" : "EUR",
    "maxPeriod" : "P2Y",
    "periods" : [ {
      "code" : "P3M",
      "interestRates" : [ {
        "minAmount" : 0,
        "value" : 4.2
      } ]
    }, {
      "code" : "P6M",
      "interestRates" : [ {
        "minAmount" : 0,
        "value" : 4.3
      } ]
    }, {
      "code" : "P9M",
      "interestRates" : [ {
        "minAmount" : 0,
        "value" : 4.4
      } ]
    }, {
      "code" : "P1Y",
      "interestRates" : [ {
        "minAmount" : 0,
        "value" : 4.5
      } ]
    }, {
      "code" : "P2Y",
      "interestRates" : [ {
        "minAmount" : 0,
        "value" : 4.6
      } ]
    } ]
  } ],
  "autoProlongationAllowed" : true,
  "reinvestInterest" : true,
  "name" : "MDEP",
  "description" : "MDEP",
  "topupAmount" : {
    "currencies" : [ {
      "minAmount" : 10,
      "maxAmount" : 999999999,
      "code" : "EUR"
    }, {
      "minAmount" : 200,
      "maxAmount" : 999999999,
      "code" : "UAH"
    }, {
      "minAmount" : 10,
      "maxAmount" : 999999999,
      "code" : "USD"
    } ]
  },
  "interestPayment" : [ "monthly" ]
}, {
  "id" : "49",
  "currencies" : [ {
    "minAmount" : 40000,
    "maxAmount" : 999999999,
    "code" : "EUR",
    "maxPeriod" : "P2Y",
    "periods" : [ {
      "code" : "P3M",
      "interestRates" : [ {
        "minAmount" : 0,
        "value" : 2.7
      } ]
    }, {
      "code" : "P6M",
      "interestRates" : [ {
        "minAmount" : 0,
        "value" : 3.1
      } ]
    }, {
      "code" : "P9M",
      "interestRates" : [ {
        "minAmount" : 0,
        "value" : 4.5
      } ]
    }, {
      "code" : "P1Y",
      "interestRates" : [ {
        "minAmount" : 0,
        "value" : 5.9
      } ]
    }, {
      "code" : "P2Y",
      "interestRates" : [ {
        "minAmount" : 0,
        "value" : 6.3
      } ]
    } ]
  }, {
    "minAmount" : 1000000,
    "maxAmount" : 999999999,
    "code" : "UAH",
    "maxPeriod" : "P2Y",
    "periods" : [ {
      "code" : "P3M",
      "interestRates" : [ {
        "minAmount" : 0,
        "value" : 6.2
      } ]
    }, {
      "code" : "P6M",
      "interestRates" : [ {
        "minAmount" : 0,
        "value" : 6.7
      } ]
    }, {
      "code" : "P9M",
      "interestRates" : [ {
        "minAmount" : 0,
        "value" : 7.1
      } ]
    }, {
      "code" : "P1Y",
      "interestRates" : [ {
        "minAmount" : 0,
        "value" : 7.3
      } ]
    }, {
      "code" : "P2Y",
      "interestRates" : [ {
        "minAmount" : 0,
        "value" : 7.8
      } ]
    } ]
  }, {
    "minAmount" : 40000,
    "maxAmount" : 999999999,
    "code" : "USD",
    "maxPeriod" : "P2Y",
    "periods" : [ {
      "code" : "P3M",
      "interestRates" : [ {
        "minAmount" : 1000,
        "value" : 5.3
      } ]
    }, {
      "code" : "P6M",
      "interestRates" : [ {
        "minAmount" : 2000,
        "value" : 5.6
      } ]
    }, {
      "code" : "P9M",
      "interestRates" : [ {
        "minAmount" : 2500,
        "value" : 5.8
      } ]
    }, {
      "code" : "P1Y",
      "interestRates" : [ {
        "minAmount" : 3100,
        "value" : 6.0
      } ]
    }, {
      "code" : "P2Y",
      "interestRates" : [ {
        "minAmount" : 3300,
        "value" : 6.2
      } ]
    } ]
  } ],
  "autoProlongationAllowed" : true,
  "reinvestInterest" : true,
  "name" : "MPRE",
  "description" : "MPRE",
  "topupAmount" : {
    "currencies" : [ {
      "minAmount" : 100,
      "maxAmount" : 999999999,
      "code" : "EUR"
    }, {
      "minAmount" : 1000,
      "maxAmount" : 999999999,
      "code" : "UAH"
    }, {
      "minAmount" : 100,
      "maxAmount" : 999999999,
      "code" : "USD"
    } ]
  },
  "interestPayment" : [ "monthly" ]
}, {
  "id" : "50",
  "currencies" : [ {
    "minAmount" : 10,
    "maxAmount" : 999999999,
    "code" : "EUR",
    "maxPeriod" : "P1M",
    "periods" : [ {
      "code" : "P1M",
      "interestRates" : [ {
        "minAmount" : 0,
        "value" : 0
      } ]
    } ]
  }, {
    "minAmount" : 200,
    "maxAmount" : 999999999,
    "code" : "UAH",
    "maxPeriod" : "P1M",
    "periods" : [ {
      "code" : "P1M",
      "interestRates" : [ {
        "minAmount" : 0,
        "value" : 0
      } ]
    } ]
  }, {
    "minAmount" : 10,
    "maxAmount" : 999999999,
    "code" : "USD",
    "maxPeriod" : "P1M",
    "periods" : [ {
      "code" : "P1M",
      "interestRates" : [ {
        "minAmount" : 0,
        "value" : 0
      } ]
    } ]
  } ],
  "autoProlongationAllowed" : true,
  "reinvestInterest" : false,
  "name" : "MPRG",
  "description" : "MPRG",
  "topupAmount" : {
    "currencies" : [ {
      "minAmount" : 999999999,
      "maxAmount" : 999999999,
      "code" : "EUR"
    }, {
      "minAmount" : 999999999,
      "maxAmount" : 999999999,
      "code" : "UAH"
    }, {
      "minAmount" : 999999999,
      "maxAmount" : 999999999,
      "code" : "USD"
    } ]
  },
  "interestPayment" : [ "monthly" ]
} ]